# Fdb version 3
["pdflatex"] 1625365005 "EnzoCalvi.tex" "EnzoCalvi.pdf" "EnzoCalvi" 1625365205
  "/usr/share/texmf-dist/fonts/map/fontname/texfonts.map" 1617738065 3524 cb3e574dea2d1052e39280babc910dc8 ""
  "/usr/share/texmf-dist/fonts/tfm/public/cm/cmbxti10.tfm" 1617738065 1532 9162035f4e7176612125649e348e2195 ""
  "/usr/share/texmf-dist/fonts/tfm/public/cm/cmcsc10.tfm" 1617738065 1300 63a6111ee6274895728663cf4b4e7e81 ""
  "/usr/share/texmf-dist/fonts/tfm/public/cm/cmr12.tfm" 1617738065 1288 655e228510b4c2a1abe905c368440826 ""
  "/usr/share/texmf-dist/fonts/tfm/public/cm/cmti10.tfm" 1617738065 1480 aa8e34af0eb6a2941b776984cf1dfdc4 ""
  "/usr/share/texmf-dist/fonts/tfm/public/cm/cmti12.tfm" 1617738065 1484 ed72f8f5cf654cda15ecc8e32bfcbee5 ""
  "/usr/share/texmf-dist/fonts/type1/public/amsfonts/cm/cmbxti10.pfb" 1617738065 36554 b67dc2cfa451409e100b3fcf5f506509 ""
  "/usr/share/texmf-dist/fonts/type1/public/amsfonts/cm/cmcsc10.pfb" 1617738065 32001 6aeea3afe875097b1eb0da29acd61e28 ""
  "/usr/share/texmf-dist/fonts/type1/public/amsfonts/cm/cmr12.pfb" 1617738065 32722 d7379af29a190c3f453aba36302ff5a9 ""
  "/usr/share/texmf-dist/fonts/type1/public/amsfonts/cm/cmti12.pfb" 1617738065 36118 fad905eba93cff5bce1e185fe980a177 ""
  "/usr/share/texmf-dist/tex/context/base/mkii/supp-pdf.mkii" 1617738065 71627 94eb9990bed73c364d7f53f960cc8c5b ""
  "/usr/share/texmf-dist/tex/generic/iftex/iftex.sty" 1617738065 6501 4011d89d9621e0b0901138815ba5ff29 ""
  "/usr/share/texmf-dist/tex/generic/iftex/ifvtex.sty" 1617738065 1057 525c2192b5febbd8c1f662c9468335bb ""
  "/usr/share/texmf-dist/tex/latex/base/article.cls" 1617738065 20145 aad8c3dd3bc36e260347b84002182bc2 ""
  "/usr/share/texmf-dist/tex/latex/base/size10.clo" 1617738065 8449 a72d5d4e612221b46000c3d71724e0ef ""
  "/usr/share/texmf-dist/tex/latex/epstopdf-pkg/epstopdf-base.sty" 1617738065 13886 d1306dcf79a944f6988e688c1785f9ce ""
  "/usr/share/texmf-dist/tex/latex/geometry/geometry.sty" 1617738065 41601 9cf6c5257b1bc7af01a58859749dd37a ""
  "/usr/share/texmf-dist/tex/latex/graphics-cfg/graphics.cfg" 1617738065 1224 978390e9c2234eab29404bc21b268d1e ""
  "/usr/share/texmf-dist/tex/latex/graphics-def/pdftex.def" 1617738065 19103 48d29b6e2a64cb717117ef65f107b404 ""
  "/usr/share/texmf-dist/tex/latex/graphics/graphics.sty" 1617738065 18272 a8c6a275b34ab6717ceeb8fa04b104e2 ""
  "/usr/share/texmf-dist/tex/latex/graphics/graphicx.sty" 1617738065 7919 20fdfdd783821971c55bc8ee918cbe63 ""
  "/usr/share/texmf-dist/tex/latex/graphics/keyval.sty" 1617738065 2590 e3b24ff953e5b58d924f163d25380312 ""
  "/usr/share/texmf-dist/tex/latex/graphics/trig.sty" 1617738065 3976 d7fa7d81d2870d509d25b17d0245e735 ""
  "/usr/share/texmf-dist/tex/latex/l3backend/l3backend-pdftex.def" 1617738065 27164 3d5f7887a89df4eb2f6e86ba26ef3254 ""
  "/usr/share/texmf-dist/tex/latex/latexconfig/epstopdf-sys.cfg" 1617738065 678 4792914a8f45be57bb98413425e4c7af ""
  "/usr/share/texmf-dist/web2c/texmf.cnf" 1617738065 39911 2da6c67557ec033436fe5418a70a8a61 ""
  "/var/lib/texmf/fonts/map/pdftex/updmap/pdftex.map" 1625193724 5173226 0404cc9a00088c27e60c9396b8eb58ed ""
  "/var/lib/texmf/web2c/pdftex/pdflatex.fmt" 1625193720 2812672 d6f8857d9754cce8cdd5ee07a894f0d9 ""
  "EnzoCalvi.aux" 1625365006 32 3985256e7290058c681f74d7a3565a19 "pdflatex"
  "EnzoCalvi.tex" 1625364997 654 9c9f3d6fb4e861986b3ae0eb84d6762b ""
  "logo.png" 1624822071 13233 6bbc4adc0e35f1fbb306e25b26515757 ""
  (generated)
  "EnzoCalvi.aux"
  "EnzoCalvi.pdf"
  "EnzoCalvi.log"
